"",location,iso_code,continent,date,total_cases,new_cases,new_cases_smoothed,total_deaths,new_deaths,new_deaths_smoothed,total_cases_per_million,new_cases_per_million,new_cases_smoothed_per_million,total_deaths_per_million,new_deaths_per_million,new_deaths_smoothed_per_million,reproduction_rate,icu_patients,icu_patients_per_million,hosp_patients,hosp_patients_per_million,weekly_icu_admissions,weekly_icu_admissions_per_million,weekly_hosp_admissions,weekly_hosp_admissions_per_million,new_tests,total_tests,total_tests_per_thousand,new_tests_per_thousand,new_tests_smoothed,new_tests_smoothed_per_thousand,positive_rate,tests_per_case,tests_units,total_vaccinations,people_vaccinated,people_fully_vaccinated,total_boosters,new_vaccinations,new_vaccinations_smoothed,total_vaccinations_per_hundred,people_vaccinated_per_hundred,people_fully_vaccinated_per_hundred,total_boosters_per_hundred,new_vaccinations_smoothed_per_million,new_people_vaccinated_smoothed,new_people_vaccinated_smoothed_per_hundred,stringency_index,population,population_density,median_age,aged_65_older,aged_70_older,gdp_per_capita,extreme_poverty,cardiovasc_death_rate,diabetes_prevalence,female_smokers,male_smokers,handwashing_facilities,hospital_beds_per_thousand,life_expectancy,human_development_index,excess_mortality_cumulative_absolute,excess_mortality_cumulative,excess_mortality,excess_mortality_cumulative_per_million,year,region
"1",Afghanistan,AFG,Asia,2021-11-25,157144,112,57.857,7307,1,1.429,3944.83,2.812,1.452,183.43,0.025,0.036,,,,,,,,,,,,,,,,,,"",,,,,,,,,,,,,,,39835428,54.422,18.6,2.581,1.337,1803.987,,597.029,9.59,,,37.746,0.5,64.83,0.511,,,,,2015,Asia
"2",Albania,ALB,Europe,2021-11-25,198292,516,467.286,3068,5,6.571,69020.729,179.607,162.651,1067.898,1.74,2.287,,,,,,,,,,,,,,,,,,"",2081782,1067769,953489,60524,7112,6859,72.46,37.17,33.19,2.11,2387,1726,0.06,,2872934,104.871,38,13.188,8.643,11803.431,1.1,304.195,10.08,7.1,51.2,,2.89,78.57,0.795,,,,,2015,Europe
"3",Algeria,DZA,Africa,2021-11-25,209624,161,156,6041,6,4.571,4698.338,3.609,3.496,135.398,0.134,0.102,,,,,,,,,,,,,,,,,,"",,,,,,,,,,,,,,,44616626,17.348,29.1,6.211,3.857,13913.839,0.5,278.364,6.73,0.7,30.4,83.741,1.9,76.88,0.748,,,,,2015,Africa
"4",Andorra,AND,Europe,2021-11-25,16566,140,75.857,131,0,0.143,214158.285,1809.861,980.649,1693.513,0,1.847,,,,,,,,,,,,,,,,,,"",,,,,,,,,,,,,,,77354,163.755,,,,,,109.135,7.97,29,37.8,,,83.73,0.868,,,,,2015,Europe
"5",Angola,AGO,Africa,2021-11-25,65105,25,17.143,1732,1,0.429,1918.599,0.737,0.505,51.041,0.029,0.013,,,,,,,,,,,,,,,,,,"",,,,,,,,,,,,,,,33933611,23.89,16.8,2.405,1.362,5819.495,,276.045,3.94,,,26.664,,61.15,0.581,,,,,2015,Africa
"6",Antigua and Barbuda,ATG,North America,2021-11-25,4141,3,1.714,117,0,1.286,41943.522,30.387,17.364,1185.074,0,13.023,,,,,,,,,,,,,,,,,,"",,,,,,,,,,,,,,,98728,231.845,32.1,6.933,4.631,21490.943,,191.511,13.17,,,,3.8,77.02,0.778,,,,,2015,North America
"7",Argentina,ARG,South America,2021-11-25,5322127,2260,1434,116480,22,19.857,116698.409,49.555,31.443,2554.06,0.482,0.435,,,,,,,,,,,,,,,,,,"",67104574,36389533,28990917,1590630,,255640,147.14,79.79,63.57,3.49,5605,55608,0.122,,45605823,16.177,31.9,11.198,7.441,18933.907,0.6,191.032,5.5,16.2,27.7,,5,76.67,0.845,,,,,2015,South America
"8",Armenia,ARM,Asia,2021-11-25,336330,592,630.857,7419,40,33.714,113313.846,199.452,212.544,2499.555,13.477,11.359,,,,,,,,,,,,,,,,,,"",,,,,,,,,,,,,,,2968128,102.931,35.7,11.232,7.571,8787.58,1.8,341.01,7.11,1.5,52.1,94.043,4.2,75.09,0.776,,,,,2015,Asia
"9",Australia,AUS,Oceania,2021-11-25,205269,1627,1378.857,1985,7,7.429,7959.798,63.091,53.468,76.973,0.271,0.288,,,,,,,,,,,,,,,,,,"",38906974,19922295,18594054,390625,105906,96933,150.87,77.25,72.1,1.51,3759,28374,0.11,,25788217,3.202,37.9,15.504,10.129,44648.71,0.5,107.791,5.07,13,16.5,,3.84,83.44,0.944,,,,,2015,Oceania
"10",Austria,AUT,Europe,2021-11-25,1108889,13592,13917.714,12233,53,47.143,122623.042,1503.029,1539.047,1352.748,5.861,5.213,,,,,,,,,,,,,,,,,,"",13412688,6283906,5886649,1580366,115701,103952,148.32,69.49,65.1,17.48,11495,12552,0.139,,9043072,106.749,44.4,19.202,13.748,45436.686,0.7,145.183,6.35,28.4,30.9,,7.37,81.54,0.922,,,,,2015,Europe
"11",Azerbaijan,AZE,Asia,2021-11-25,580507,1880,1774,7736,27,26.429,56782.497,183.893,173.524,756.7,2.641,2.585,,,,,,,,,,,,,,,,,,"",10396037,5063688,4544439,787910,32720,27786,101.69,49.53,44.45,7.71,2718,3638,0.036,,10223344,119.309,32.4,6.018,3.871,15847.419,,559.812,7.11,0.3,42.5,83.241,4.7,73,0.756,,,,,2015,Asia
"12",Bahamas,BHS,North America,2021-11-25,22696,0,8,671,0,0,57181.153,0,20.155,1690.543,0,0,,,,,,,,,,,,,,,,,,"",,,,,,,,,,,,,,,396914,39.497,34.3,8.996,5.2,27717.847,,235.954,13.17,3.1,20.4,,2.9,73.92,0.814,,,,,2015,North America
"13",Bahrain,BHR,Asia,2021-11-25,277510,29,29.429,1394,0,0.143,158731.793,16.588,16.833,797.348,0,0.082,,,,,,,,,,,,,,,,,,"",2887715,1186967,1156449,,8953,6113,165.17,67.89,66.15,,3497,276,0.016,,1748295,1935.907,32.4,2.372,1.387,43290.705,,151.689,16.52,5.8,37.6,,2,77.29,0.852,,,,,2015,Asia
"14",Bangladesh,BGD,Asia,2021-11-25,1575185,237,246.714,27970,9,4.429,9471.749,1.425,1.484,168.186,0.054,0.027,,,,,,,,,,,,,,,,,,"",92730087,57042291,35687796,,992201,819267,55.76,34.3,21.46,,4926,578134,0.348,,166303494,1265.036,27.5,5.098,3.262,3523.984,14.8,298.003,8.38,1,44.7,34.808,0.8,72.59,0.632,,,,,2015,Asia
"15",Barbados,BRB,North America,2021-11-25,24432,0,179.571,218,3,1.857,84919.432,0,624.145,757.713,10.427,6.455,,,,,,,,,,,,,,,,,,"",,,,,,,,,,,,,,,287708,664.463,39.8,14.952,9.473,16978.068,,170.05,13.57,1.9,14.5,88.469,5.8,79.19,0.814,,,,,2015,North America
"16",Belarus,BLR,Europe,2021-11-25,646743,1674,1716,5010,15,15.571,68490.11,177.277,181.724,530.559,1.589,1.649,,,,,,,,,,,,,,,,,,"",,,,,,,,,,,,,,,9442867,46.858,40.3,14.799,9.788,17167.967,,443.129,5.18,10.5,46.1,,11,74.79,0.823,,,,,2015,Europe
"17",Belgium,BEL,Europe,2021-11-25,1679861,20836,17123.286,26793,50,38.143,144413.064,1791.214,1472.042,2303.321,4.298,3.279,,,,,,,,,,,,,,,,,,"",17080315,8821402,8676283,1367675,3830,6324,146.83,75.84,74.59,11.76,544,3383,0.029,,11632334,375.564,41.8,18.571,12.849,42658.576,0.2,114.898,4.29,25.1,31.4,,5.64,81.63,0.931,,,,,2015,Europe
"18",Belize,BLZ,North America,2021-11-25,30060,93,79.857,570,1,1.714,74237.803,229.678,197.22,1407.703,2.47,4.234,,,,,,,,,,,,,,,,,,"",,,,,,,,,,,,,,,404915,16.426,25,3.853,2.279,7824.362,,176.957,17.11,,,90.083,1.3,74.62,0.716,,,,,2015,North America
"19",Benin,BEN,Africa,2021-11-25,24850,0,0.571,161,0,0,1995.819,0,0.046,12.931,0,0,,,,,,,,,,,,,,,,,,"",,,,,,,,,,,,,,,12451031,99.11,18.8,3.244,1.942,2064.236,49.6,235.848,0.99,0.6,12.3,11.035,0.5,61.77,0.545,,,,,2015,Africa
"20",Bhutan,BTN,Asia,2021-11-25,2633,0,0.571,3,0,0,3376.074,0,0.733,3.847,0,0,,,,,,,,,,,,,,,,,,"",,,,,,,,,,,,,,,779900,21.188,28.6,4.885,2.977,8708.597,1.5,217.066,9.75,,,79.807,1.7,71.78,0.654,,,,,2015,Asia
"21",Bolivia,BOL,South America,2021-11-25,533756,2328,910.857,19121,25,10.286,45107.655,196.739,76.976,1615.913,2.113,0.869,,,,,,,,,,,,,,,,,,"",,,,,,,,,,,,,,,11832936,10.202,25.4,6.704,4.393,6885.829,7.1,204.299,6.89,,,25.383,1.1,71.51,0.718,,,,,2015,South America
"22",Bosnia and Herzegovina,BIH,Europe,2021-11-25,272063,740,601.714,12412,26,33.143,83366.453,226.753,184.379,3803.326,7.967,10.156,,,,,,,,,,,,,,,,,,"",,,,,,,,,,,,,,,3263459,68.496,42.5,16.569,10.711,11713.895,0.2,329.635,10.08,30.2,47.7,97.164,3.5,77.4,0.78,,,,,2015,Europe
"23",Botswana,BWA,Africa,2021-11-25,194909,257,66.286,2416,0,0,81305.585,107.207,27.651,1007.826,0,0,,,,,,,,,,,,,,,,,,"",,,,,,,,,,,,,,,2397240,4.044,25.8,3.941,2.242,15807.374,,237.372,4.81,5.7,34.4,,1.8,69.59,0.735,,,,,2015,Africa
"24",Brazil,BRA,South America,2021-11-25,22055238,12126,9325.143,613642,303,214,103065.019,56.665,43.577,2867.574,1.416,1,,,,,,,,,,,,,,,,,,"",,,,,,,,,,,,,,,213993441,25.04,33.5,8.552,5.06,14103.452,3.4,177.961,8.11,10.1,17.9,,2.2,75.88,0.765,,,,,2015,South America
"25",Brunei,BRN,Asia,2021-11-25,14771,0,53.143,97,0,0.143,33453.974,0,120.36,219.69,0,0.324,,,,,,,,,,,,,,,,,,"",,,,,,,,,,,,,,,441532,81.347,32.4,4.591,2.382,71809.251,,201.285,12.79,2,30.9,,2.7,75.86,0.838,,,,,2015,Asia
"26",Bulgaria,BGR,Europe,2021-11-25,684922,2370,2365.571,27891,113,129.429,99312.203,343.645,343.003,4044.134,16.385,18.767,,,,,,,,,,,,,,,,,,"",3262433,,1737588,,21100,15706,47.3,,25.19,,2277,,,,6896655,65.18,44.7,20.801,13.272,18563.307,1.5,424.688,5.81,30.1,44.4,,7.454,75.05,0.816,,,,,2015,Europe
"27",Burkina Faso,BFA,Africa,2021-11-25,15514,0,0,265,0,0,721.679,0,0,12.327,0,0,,,,,,,,,,,,,,,,,,"",,,,,,,,,,,,,,,21497097,70.151,17.6,2.409,1.358,1703.102,43.7,269.048,2.42,1.6,23.9,11.877,0.4,61.58,0.452,,,,,2015,Africa
"28",Burundi,BDI,Africa,2021-11-25,20360,9,5.571,38,0,0,1661.305,0.734,0.455,3.101,0,0,,,,,,,,,,,,,,,,,,"",,,,,,,,,,,,,,,12255429,423.062,17.5,2.562,1.504,702.225,71.7,293.068,6.05,,,6.144,0.8,61.58,0.433,,,,,2015,Africa
"29",Cambodia,KHM,Asia,2021-11-25,120009,32,38.286,2918,4,4.429,7081.662,1.888,2.259,172.189,0.236,0.261,,,,,,,,,,,,,,,,,,"",,,,,,,,,,,,,,,16946446,90.672,25.6,4.412,2.385,3645.07,,270.892,4,2,33.7,66.229,0.8,69.82,0.594,,,,,2015,Asia
"30",Cameroon,CMR,Africa,2021-11-25,106794,0,86.286,1791,0,3,3922.751,0,3.169,65.787,0,0.11,,,,,,,,,,,,,,,,,,"",,,,,,,,,,,,,,,27224262,50.885,18.8,3.165,1.919,3364.926,23.8,244.661,7.2,,,2.735,1.3,59.29,0.563,,,,,2015,Africa
"31",Canada,CAN,North America,2021-11-25,1787542,4223,2797.143,29655,20,19.857,46956.659,110.933,73.478,779.003,0.525,0.522,,477,12.53,1577,41.426,,,,,,,,,,,,,"",60223639,30202023,28937165,1084451,70040,53011,158.2,79.34,76.01,2.85,1393,11460,0.03,,38067913,4.037,41.4,16.984,10.797,44017.591,0.5,105.599,7.37,12,16.6,,2.5,82.43,0.929,,,,,2015,North America
"32",Cape Verde,CPV,Africa,2021-11-25,38347,2,4.857,349,0,-0.143,68245.118,3.559,8.644,621.106,0,-0.254,,,,,,,,,,,,,,,,,,"",,,,,,,,,,,,,,,561901,135.58,25.7,4.46,3.437,6222.554,,182.219,2.42,2.1,16.5,,2.1,72.98,0.665,,,,,2015,Africa
"33",Central African Republic,CAF,Africa,2021-11-25,11708,0,6,101,0,0,2379.681,0,1.22,20.529,0,0,,,,,,,,,,,,,,,,,,"",,,,,,,,,,,,,,,4919987,7.479,18.3,3.655,2.251,661.24,,435.727,6.1,,,16.603,1,53.28,0.397,,,,,2015,Africa
"34",Chad,TCD,Africa,2021-11-25,5107,0,0,175,0,0,301.922,0,0,10.346,0,0,,,,,,,,,,,,,,,,,,"",,,,,,,,,,,,,,,16914985,11.833,16.7,2.486,1.446,1768.153,38.4,280.995,6.1,,,5.818,,54.24,0.398,,,,,2015,Africa
"35",Chile,CHL,South America,2021-11-25,1751769,2670,2368.857,38218,43,24.143,91179.263,138.973,123.299,1989.24,2.238,1.257,,,,,,,,,,,,,,,,,,"",,,,,,,,,,,,,,,19212362,24.282,35.4,11.087,6.938,22767.037,1.3,127.993,8.46,34.2,41.5,,2.11,80.18,0.851,,,,,2015,South America
"36",China,CHN,Asia,2021-11-25,98660,13,22.286,4636,0,0,68.314,0.009,0.015,3.21,0,0,,,,,,,,,,,,,,,,,,"",2464330000,,,,7713000,6878714,170.63,,,,4763,,,,1444216102,147.674,38.7,10.641,5.929,15308.712,0.7,261.899,9.74,1.9,48.4,,4.34,76.91,0.761,,,,,2015,Asia
"37",Colombia,COL,South America,2021-11-25,5057897,2644,2461.714,128290,54,46.714,98660.178,51.574,48.019,2502.446,1.053,0.911,,,,,,,,,,,,,,,,,,"",,,,,,,,,,,,,,,51265841,44.223,32.2,7.646,4.312,13254.949,4.5,124.24,7.44,4.7,13.5,65.386,1.71,77.29,0.767,,,,,2015,South America
"38",Comoros,COM,Africa,2021-11-25,4478,0,5.857,150,0,0.143,5040.205,0,6.592,168.832,0,0.161,,,,,,,,,,,,,,,,,,"",,,,,,,,,,,,,,,888456,437.352,20.4,2.963,1.726,1413.89,18.1,261.516,11.88,4.4,23.6,15.574,2.2,64.32,0.554,,,,,2015,Africa
"39",Congo,COG,Africa,2021-11-25,18837,0,42.571,349,0,2.571,3329.847,0,7.525,61.693,0,0.455,,,,,,,,,,,,,,,,,,"",,,,,,,,,,,,,,,5657017,15.405,19,3.402,2.063,4881.406,37,344.094,7.2,1.7,52.3,47.964,,64.57,0.574,,,,,2015,Africa
"40",Costa Rica,CRI,North America,2021-11-25,566429,133,154.571,7284,4,5.143,110220.502,25.88,30.078,1417.382,0.778,1.001,,,,,,,,,,,,,,,,,,"",,,,,,,,,,,,,,,5139053,96.079,33.6,9.468,5.694,15524.995,1.3,137.973,8.78,6.4,17.4,83.841,1.13,80.28,0.81,,,,,2015,North America
"41",Cote d'Ivoire,CIV,Africa,2021-11-25,61665,5,16,704,1,0.286,2279.361,0.185,0.591,26.022,0.037,0.011,,,,,,,,,,,,,,,,,,"",,,,,,,,,,,,,,,27053629,76.399,18.7,2.933,1.582,3601.006,28.2,303.74,2.42,,,19.351,,57.78,0.538,,,,,2015,Africa
"42",Croatia,HRV,Europe,2021-11-25,589015,6246,4392.143,10569,64,65.143,144307.814,1530.261,1076.069,2589.39,15.68,15.96,,,,,,,,,,,,,,,,,,"",4073744,2161370,1918691,,26442,19332,99.81,52.95,47.01,,4736,8869,0.217,,4081657,73.726,44,19.724,13.053,22669.797,0.7,253.782,5.59,34.3,39.9,,5.54,78.49,0.851,,,,,2015,Europe
"43",Cuba,CUB,North America,2021-11-25,961698,240,261.286,8299,0,1.429,84974.435,21.206,23.087,733.289,0,0.126,,,,,,,,,,,,,,,,,,"",,,,,,,,,,,,,,,11317498,110.408,43.1,14.738,9.719,,,190.968,8.27,17.1,53.3,85.198,5.2,78.8,0.783,,,,,2015,North America
"44",Cyprus,CYP,Europe,2021-11-25,131462,0,329.143,591,0,0.286,146720.163,0,367.345,659.595,0,0.319,,,,,,,,,,,,,,,,,,"",1298388,619136,581601,97651,,5859,144.91,69.1,64.91,10.9,6539,941,0.105,,896005,127.657,37.3,13.416,8.563,32415.132,,141.171,9.24,19.6,52.7,,3.4,80.98,0.887,,,,,2015,Europe
"45",Czechia,CZE,Europe,2021-11-25,2062064,18046,16809.143,32523,115,107.714,192275.053,1682.681,1567.351,3032.574,10.723,10.044,,,,,,,,,,,,,,,,,,"",13266166,6592012,6312826,736846,58601,44514,123.7,61.47,58.86,6.87,4151,16008,0.149,35.19,10724553,137.176,43.3,19.027,11.58,32605.906,,227.485,6.82,30.5,38.3,,6.63,79.38,0.9,,,,,2015,Europe
"46",Democratic Republic of Congo,COD,Africa,2021-11-25,58060,0,36.714,1104,0,0.714,628.505,0,0.397,11.951,0,0.008,,,,,,,,,,,,,,,,,,"",,,,,,,,,,,,,,,92377986,35.879,17,3.02,1.745,808.133,77.1,318.949,6.1,,,4.472,,60.68,0.48,,,,,2015,Africa
"47",Denmark,DNK,Europe,2021-11-25,471465,4443,4064,2854,12,7.286,81101.068,764.282,699.086,490.943,2.064,1.253,,,,,,,,,,,,,,,,,,"",9681985,4553329,4447093,728073,38329,28963,166.55,78.33,76.5,12.52,4982,2649,0.046,,5813302,136.52,42.3,19.677,12.325,46682.515,0.2,114.767,6.41,19.3,18.8,,2.5,80.9,0.94,,,,,2015,Europe
"48",Djibouti,DJI,Africa,2021-11-25,13504,1,0.571,186,0,0,13474.397,0.998,0.57,185.592,0,0,,,,,,,,,,,,,,,,,,"",,,,,,,,,,,,,,,1002197,41.285,25.4,4.213,2.38,2705.406,22.5,258.037,6.05,1.7,24.5,,1.4,67.11,0.524,,,,,2015,Africa
"49",Dominica,DMA,North America,2021-11-25,5819,177,38.429,37,2,0.286,80626.836,2452.475,532.458,512.664,27.712,3.959,,,,,,,,,,,,,,,,,,"",,,,,,,,,,,,,,,72172,98.567,,,,9673.367,,227.376,11.62,,,,3.8,75,0.742,,,,,2015,North America
"50",Dominican Republic,DOM,North America,2021-11-25,405513,759,820,4197,2,2.143,37020.594,69.292,74.86,383.158,0.183,0.196,,,,,,,,,,,,,,,,,,"",13759792,6861368,5573716,1324708,15683,14114,125.62,62.64,50.88,12.09,1289,2970,0.027,,10953714,222.873,27.6,6.981,4.419,14600.861,1.6,266.653,8.2,8.5,19.1,55.182,1.6,74.08,0.756,,,,,2015,North America
"51",Ecuador,ECU,South America,2021-11-25,524432,0,377.143,33128,0,5.714,29316.754,0,21.083,1851.919,0,0.319,,,,,,,,,,,,,,,,,,"",,,,,,,,,,,,,,,17888474,66.939,28.1,7.104,4.458,10581.936,3.6,140.448,5.55,2,12.3,80.635,1.5,77.01,0.759,,,,,2015,South America
"52",Egypt,EGY,Africa,2021-11-25,353923,899,886.286,20172,63,56,3394.674,8.623,8.501,193.481,0.604,0.537,,,,,,,,,,,,,,,,,,"",,,,,,,,,,,,,,,104258327,97.999,25.3,5.159,2.891,10550.206,1.3,525.432,17.31,0.2,50.1,89.827,1.6,71.99,0.707,,,,,2015,Africa
"53",El Salvador,SLV,North America,2021-11-25,118041,0,0,3764,2,3.286,18108.614,0,0,577.433,0.307,0.504,,,,,,,,,,,,,,,,,,"",,,,,,,,,,,,,,,6518500,307.811,27.6,8.273,5.417,7292.458,2.2,167.295,8.87,2.5,18.8,90.65,1.3,73.32,0.673,,,,,2015,North America
"54",Equatorial Guinea,GNQ,Africa,2021-11-25,13547,0,4,170,0,0.143,9343.461,0,2.759,117.25,0,0.099,,,,,,,,,,,,,,,,,,"",,,,,,,,,,,,,,,1449891,45.194,22.4,2.846,1.752,22604.873,,202.812,7.78,,,24.64,2.1,58.74,0.592,,,,,2015,Africa
"55",Eritrea,ERI,Africa,2021-11-25,7269,19,22.429,58,1,0.714,2018.347,5.276,6.228,16.105,0.278,0.198,,,,,,,,,,,,,,,,,,"",,,,,,,,,,,,,,,3601462,44.304,19.3,3.607,2.171,1510.459,,311.11,6.05,0.2,11.4,,0.7,66.32,0.459,,,,,2015,Africa
"56",Estonia,EST,Europe,2021-11-25,219878,619,644.429,1773,10,8.429,165922.118,467.104,486.292,1337.923,7.546,6.36,,,,,,,,,,,,,,,,,,"",1474767,825171,784519,,1477,1309,111.29,62.27,59.2,,988,745,0.056,,1325188,31.033,42.7,19.452,13.491,29481.252,0.5,255.569,4.02,24.5,39.3,,4.69,78.74,0.892,,,,,2015,Europe
"57",Eswatini,SWZ,Africa,2021-11-25,46514,8,4.143,1248,0,0,39675.222,6.824,3.534,1064.511,0,0,,,,,,,,,,,,,,,,,,"",,,,,,,,,,,,,,,1172369,79.492,21.5,3.163,1.845,7738.975,,333.436,3.94,1.7,16.5,24.097,2.1,60.19,0.611,,,,,2015,Africa
"58",Ethiopia,ETH,Africa,2021-11-25,370886,174,174.143,6714,6,8.429,3146.402,1.476,1.477,56.958,0.051,0.072,,,,,,,,,,,,,,,,,,"",,,,,,,,,,,,,,,117876226,104.957,19.8,3.526,2.063,1729.927,26.7,182.634,7.47,0.4,8.5,7.96,0.3,66.6,0.485,,,,,2015,Africa
"59",Fiji,FJI,Oceania,2021-11-25,52474,0,4.286,695,0,0.143,58117.242,0,4.747,769.743,0,0.158,,,,,,,,,,,,,,,,,,"",,,,,,,,,,,,,,,902899,49.562,28.6,6.224,3.284,8702.975,1.4,412.82,14.49,10.2,34.8,,2.3,67.44,0.743,,,,,2015,Oceania
"60",Finland,FIN,Europe,2021-11-25,180878,1344,1035.143,1302,0,8,32600.258,242.234,186.567,234.664,0,1.442,,,,,,,,,,,,,,,,,,"",8299932,4281669,4018263,,,8834,149.59,77.17,72.42,,1592,2847,0.051,,5548361,18.136,42.8,21.228,13.264,40585.721,,153.507,5.76,18.3,22.6,,3.28,81.91,0.938,,,,,2015,Europe
"61",France,FRA,Europe,2021-11-25,7619656,33510,23673.571,119758,72,60.714,112776.444,495.972,350.386,1772.505,1.066,0.899,,,,,,,,,,,,,,,,,,"",,,,,,,,,,,,,,,67564251,122.578,42,19.718,13.079,38605.671,,86.06,4.77,30.1,35.6,,5.98,82.66,0.901,,,,,2015,Europe
"62",Gabon,GAB,Africa,2021-11-25,37223,0,40,276,0,0.857,16334.266,0,17.553,121.115,0,0.376,,,,,,,,,,,,,,,,,,"",,,,,,,,,,,,,,,2278829,7.859,23.1,4.45,2.976,16562.413,3.4,259.967,7.2,,,,6.3,66.47,0.703,,,,,2015,Africa
"63",Gambia,GMB,Africa,2021-11-25,9989,1,0.429,342,0,0.143,4016.587,0.402,0.172,137.519,0,0.057,,,,,,,,,,,,,,,,,,"",,,,,,,,,,,,,,,2486937,207.566,17.5,2.339,1.417,1561.767,10.1,331.43,1.91,0.7,31.2,7.876,1.1,62.05,0.496,,,,,2015,Africa
"64",Georgia,GEO,Asia,2021-11-25,826714,4331,3774.429,11736,57,63.857,207728.933,1088.253,948.403,2948.912,14.322,16.045,,,,,,,,,,,,,,,,,,"",2133935,1144402,989533,,,7397,53.62,28.76,24.86,,1859,5464,0.137,,3979773,65.032,38.7,14.864,10.244,9745.079,4.2,496.218,7.11,5.3,55.5,,2.6,73.77,0.812,,,,,2015,Asia
"65",Germany,DEU,Europe,2021-11-25,5670253,74579,56898.857,100480,357,247,67583.089,888.898,678.171,1197.609,4.255,2.944,,,,,,,,,,,,,,,,,,"",120376028,59018263,56795142,7981435,790538,504378,143.47,70.34,67.69,9.51,6012,71421,0.085,,83900471,237.016,46.6,21.453,15.957,45229.245,,156.139,8.31,28.2,33.1,,8,81.33,0.947,,,,,2015,Europe
"66",Ghana,GHA,Africa,2021-11-25,130920,0,27.571,1209,0,0.286,4125.787,0,0.869,38.1,0,0.009,,,,,,,,,,,,,,,,,,"",,,,,,,,,,,,,,,31732128,126.719,21.1,3.385,1.948,4227.63,12,298.245,4.97,0.3,7.7,41.047,0.9,64.07,0.611,,,,,2015,Africa
"67",Greece,GRC,Europe,2021-11-25,908222,6561,6729.286,17693,81,88.286,87575.369,632.645,648.872,1706.049,7.81,8.513,,,,,,,,,,,,,,,,,,"",13954028,6977918,6552854,1124712,90924,67805,134.55,67.28,63.19,10.85,6538,15702,0.151,,10370747,83.479,45.3,20.396,14.524,24574.382,1.5,175.695,4.55,35.3,52,,4.21,82.24,0.888,,,,,2015,Europe
"68",Grenada,GRD,North America,2021-11-25,5880,0,2.143,200,0,0,52028.492,0,18.961,1769.677,0,0,,,,,,,,,,,,,,,,,,"",,,,,,,,,,,,,,,113015,317.132,29.4,7.304,5.021,13593.877,,243.964,10.71,,,,3.7,72.4,0.779,,,,,2015,North America
"69",Guatemala,GTM,North America,2021-11-25,616554,829,740,15885,15,15.714,33784.025,45.425,40.548,870.417,0.822,0.861,,,,,,,,,,,,,,,,,,"",,,,,,,,,,,,,,,18249868,157.834,22.9,4.694,3.016,7423.808,8.7,155.898,10.18,,,76.665,0.6,74.3,0.663,,,,,2015,North America
"70",Guinea,GIN,Africa,2021-11-25,30751,0,5.143,387,0,0,2278.318,0,0.381,28.673,0,0,,,,,,,,,,,,,,,,,,"",,,,,,,,,,,,,,,13497237,51.755,19,3.135,1.733,1998.926,35.3,336.717,2.42,,,17.45,0.3,61.6,0.477,,,,,2015,Africa
"71",Guinea-Bissau,GNB,Africa,2021-11-25,6438,0,0.571,146,0,0,3194.26,0,0.284,72.439,0,0,,,,,,,,,,,,,,,,,,"",365089,346678,18411,,,3176,18.11,17.2,0.91,,1576,3131,0.155,,2015490,66.191,19.4,3.002,1.565,1548.675,67.1,382.474,2.42,,,6.403,,58.32,0.48,,,,,2015,Africa
"72",Guyana,GUY,South America,2021-11-25,37613,89,74.714,983,3,2.143,47591.573,112.611,94.536,1243.786,3.796,2.711,,,,,,,,,,,,,,,,,,"",,,,,,,,,,,,,,,790329,3.952,26.3,5.305,2.837,7435.047,,373.159,11.62,,,77.159,1.6,69.91,0.682,,,,,2015,South America
"73",Haiti,HTI,North America,2021-11-25,24974,0,37.714,723,0,1.714,2163.809,0,3.268,62.643,0,0.149,,,,,,,,,,,,,,,,,,"",,,,,,,,,,,,,,,11541683,398.448,24.3,4.8,2.954,1653.173,23.5,430.548,6.65,2.9,23.1,22.863,0.7,64,0.51,,,,,2015,North America
"74",Honduras,HND,North America,2021-11-25,377712,0,59.857,10401,0,4.143,37534.754,0,5.948,1033.589,0,0.412,,,,,,,,,,,,,,,,,,"",,,,,,,,,,,,,,,10062994,82.805,24.9,4.652,2.883,4541.795,16,240.208,7.21,2,,84.169,0.7,75.27,0.634,,,,,2015,North America
"75",Hong Kong,HKG,Asia,2021-11-25,12417,6,3.143,213,0,0,1644.026,0.794,0.416,28.201,0,0,,,,,,,,,,,,,,,,,,"",9345517,4720795,4513807,,21889,14854,123.74,62.5,59.76,,1967,4578,0.061,,7552800,7039.714,44.8,16.303,10.158,56054.92,,,8.33,,,,,84.86,0.949,,,,,2015,Asia
"76",Hungary,HUN,Europe,2021-11-25,1057017,12165,9974,33704,185,151.286,109715.51,1262.694,1035.274,3498.384,19.203,15.703,,,,,,,,,,,,,,,,,,"",,6087474,5823818,2269551,,,,63.19,60.45,23.56,,9952,0.103,,9634162,108.043,43.4,18.577,11.976,26777.561,0.5,278.296,7.55,26.8,34.8,,7.02,76.88,0.854,,,,,2015,Europe
"77",Iceland,ISL,Europe,2021-11-25,17294,142,150.143,35,0,0.143,50366.962,413.56,437.275,101.934,0,0.416,,,,,,,,,,,,,,,,,,"",637380,285289,280766,126480,,4163,185.63,83.09,81.77,36.84,12124,109,0.032,,343360,3.404,37.3,14.431,9.207,46482.958,0.2,117.992,5.31,14.3,15.2,,2.91,82.99,0.949,,,,,2015,Europe
"78",India,IND,Asia,2021-11-25,34555431,10549,9401.143,467468,488,340.857,24799.201,7.571,6.747,335.485,0.35,0.245,,,,,,,,,,,,,,,,,,"",1198528642,776515911,422012731,,4759413,7105965,86.01,55.73,30.29,,5100,2283375,0.164,,1393409033,450.419,28.2,5.989,3.414,6426.674,21.2,282.28,10.39,1.9,20.6,59.55,0.53,69.66,0.645,,,,,2015,Asia
"79",Indonesia,IDN,Asia,2021-11-25,4254815,372,352.857,143782,16,10.429,15395.815,1.346,1.277,520.267,0.058,0.038,,,,,,,,,,,,,,,,,,"",230610233,137505204,93105029,,,1742903,83.45,49.76,33.69,,6307,775888,0.281,,276361788,145.725,29.3,5.319,3.053,11188.744,5.7,342.864,6.32,2.8,76.1,64.204,1.04,71.72,0.718,,,,,2015,Asia
"80",Iran,IRN,Asia,2021-11-25,6097672,4850,4842.429,129376,96,106,71713.053,57.04,56.95,1521.556,1.129,1.247,,,,,,,,,,,,,,,,,,"",,,,,,,,,,,,,,,85028760,49.831,32.4,5.44,3.182,19082.62,0.2,270.308,9.59,0.8,21.1,,1.5,76.68,0.783,,,,,2015,Asia
"81",Iraq,IRQ,Asia,2021-11-25,2077665,743,741,23748,23,20.143,50454.049,18.043,17.994,576.697,0.559,0.489,,,,,,,,,,,,,,,,,,"",,,,,,,,,,,,,,,41179351,88.125,20,3.186,1.957,15663.986,2.5,218.612,8.83,,,94.576,1.4,70.6,0.674,,,,,2015,Asia
"82",Ireland,IRL,Europe,2021-11-25,546909,4763,4459.714,5652,0,6.143,109757.081,955.868,895.003,1134.278,0,1.233,,,,,,,,,,,,,,,,,,"",,,,,,,,,,,,,,,4982904,69.874,38.7,13.928,8.678,67335.293,0.2,126.459,3.28,23,25.7,,2.96,82.3,0.955,,,,,2015,Europe
"83",Israel,ISR,Asia,2021-11-25,1341088,607,261.429,8182,2,4,144342.697,65.332,28.138,880.637,0.215,0.431,,81,8.718,176,18.943,,,,,,,,,,,,,"",16132919,6296116,5771504,4065299,15971,9148,173.64,67.77,62.12,43.76,985,4529,0.049,,9291000,402.606,30.6,11.733,7.359,33132.32,0.5,93.32,6.74,15.4,35.4,,2.99,82.97,0.919,,,,,2015,Asia
"84",Italy,ITA,Europe,2021-11-25,4968341,13756,10636.286,133486,71,64.571,82301.626,227.871,176.192,2211.224,1.176,1.07,,,,,,,,,,,,,,,,,,"",94750779,47063898,43947538,5234072,320354,237706,156.96,77.96,72.8,8.67,3938,20221,0.033,,60367471,205.859,47.9,23.021,16.24,35220.084,2,113.151,4.78,19.8,27.8,,3.18,83.51,0.892,,,,,2015,Europe
"85",Jamaica,JAM,North America,2021-11-25,90961,56,70.571,2367,2,3.429,30590.941,18.833,23.734,796.042,0.673,1.153,,,,,,,,,,,,,,,,,,"",1091252,656469,501046,,4324,3945,36.7,22.08,16.85,,1327,2447,0.082,,2973462,266.879,31.4,9.684,6.39,8193.571,,206.537,11.28,5.3,28.6,66.425,1.7,74.47,0.734,,,,,2015,North America
"86",Japan,JPN,Asia,2021-11-25,1726186,112,104,18351,2,1.857,13694.368,0.889,0.825,145.584,0.016,0.015,,,,,,,,,,,,,,,,,,"",196576395,99653851,96922544,,135940,155171,155.95,79.06,76.89,,1231,31852,0.025,,126050796,347.778,48.2,27.049,18.493,39002.223,,79.37,5.72,11.2,33.7,,13.05,84.63,0.919,,,,,2015,Asia
"87",Jordan,JOR,Asia,2021-11-25,932539,4283,3828.714,11459,30,21.286,90810.887,417.08,372.841,1115.88,2.921,2.073,,,,,,,,,,,,,,,,,,"",7822828,4107834,3714994,,18507,13434,76.18,40,36.18,,1308,5464,0.053,,10269022,109.285,23.2,3.81,2.361,8337.49,0.1,208.257,11.75,,,,1.4,74.53,0.729,,,,,2015,Asia
"88",Kazakhstan,KAZ,Asia,2021-11-25,1050700,1063,1034.857,17751,19,21.429,55314.679,55.962,54.481,934.511,1,1.128,,,,,,,,,,,,,,,,,,"",16686219,8677674,8008545,,65464,30378,87.85,45.68,42.16,,1599,12705,0.067,,18994958,6.681,30.6,6.991,4.625,24055.588,0.1,466.792,7.11,7,43.1,98.999,6.7,73.6,0.825,,,,,2015,Asia
"89",Kenya,KEN,Africa,2021-11-25,254862,46,45.857,5332,0,1,4635.059,0.837,0.834,96.971,0,0.018,,,,,,,,,,,,,,,,,,"",6811043,4405888,2603541,,110909,71328,12.39,8.01,4.73,,1297,63265,0.115,,54985702,87.324,20,2.686,1.528,2993.028,36.8,218.637,2.92,1.2,20.4,24.651,1.4,66.7,0.601,,,,,2015,Africa
"90",Kiribati,KIR,Oceania,2021-11-25,2,0,0,,,0,16.476,0,0,,,0,,,,,,,,,,,,,,,,,,"",,,,,,,,,,,,,,,121388,143.701,23.2,3.895,2.21,1981.132,,434.657,22.66,35.9,58.9,,1.9,68.37,0.63,,,,,2015,Oceania
"91",Kosovo,OWID_KOS,Europe,2021-11-25,161049,12,9.143,2983,0,0.429,90369.589,6.734,5.13,1673.854,0,0.24,,,,,,,,,,,,,,,,,,"",,,,,,,,,,,,,,,1782115,168.155,,,,9795.834,0.6,,,,,,,,,,,,,2015,Europe
"92",Kuwait,KWT,Asia,2021-11-25,413224,26,19.143,2465,0,0.143,95464.697,6.007,4.422,569.474,0,0.033,,,,,,,,,,,,,,,,,,"",,,,,,,,,,,,,,,4328553,232.128,33.7,2.345,1.114,65530.537,,132.235,15.84,2.7,37,,2,75.49,0.806,,,,,2015,Asia
"93",Kyrgyzstan,KGZ,Asia,2021-11-25,183066,70,57,2734,2,2.714,27618.651,10.561,8.599,412.471,0.302,0.409,,,,,,,,,,,,,,,,,,"",1981920,1098795,878229,,15512,10621,29.9,16.58,13.25,,1602,5096,0.077,,6628347,32.333,26.3,4.489,2.882,3393.474,1.4,436.362,7.11,3.6,50.5,89.22,4.5,71.45,0.697,,,,,2015,Asia
"94",Laos,LAO,Asia,2021-11-25,67322,1504,1217.714,143,1,3.857,9123.016,203.812,165.016,19.378,0.136,0.523,,,,,,,,,,,,,,,,,,"",,,,,,,,,,,,,,,7379358,29.715,24.4,4.029,2.322,6397.36,22.7,368.111,4,7.3,51.2,49.839,1.5,67.92,0.613,,,,,2015,Asia
"95",Latvia,LVA,Europe,2021-11-25,250132,1095,795.857,4083,20,26,133980.098,586.523,426.291,2187.008,10.713,13.927,,,,,,,,,,,,,,,,,,"",2169016,1264892,1168099,,6038,6046,116.18,67.75,62.57,,3238,2099,0.112,,1866934,31.212,43.9,19.754,14.136,25063.846,0.7,350.06,4.91,25.6,51,,5.57,75.29,0.866,,,,,2015,Europe
"96",Lebanon,LBN,Asia,2021-11-25,663779,1510,1083.857,8685,9,9.857,98059.417,223.071,160.117,1283.026,1.33,1.456,,,,,,,,,,,,,,,,,,"",3549359,1888065,1661294,,9575,8415,52.43,27.89,24.54,,1243,4151,0.061,,6769151,594.561,31.1,8.514,5.43,13367.565,,266.591,12.71,26.9,40.7,,2.9,78.93,0.744,,,,,2015,Asia
"97",Lesotho,LSO,Africa,2021-11-25,21735,0,2.286,662,0,0.143,10066.848,0,1.059,306.614,0,0.066,,,,,,,,,,,,,,,,,,"",,,,,,,,,,,,,,,2159067,73.562,22.2,4.506,2.647,2851.153,59.6,405.126,3.94,0.4,53.9,2.117,,54.33,0.527,,,,,2015,Africa
"98",Liberia,LBR,Africa,2021-11-25,5821,2,0.429,287,0,0,1123.7,0.386,0.083,55.403,0,0,,,,,,,,,,,,,,,,,,"",,,,,,,,,,,,,,,5180208,49.127,19.2,3.057,1.756,752.788,38.6,272.509,2.42,1.5,18.1,1.188,0.8,64.1,0.48,,,,,2015,Africa
"99",Libya,LBY,Africa,2021-11-25,370187,732,485.429,5425,11,11.286,53198.962,105.195,69.76,779.618,1.581,1.622,,,,,,,,,,,,,,,,,,"",,,,,,,,,,,,,,,6958538,3.623,29,4.424,2.816,17881.509,,341.862,10.43,,,,3.7,72.91,0.724,,,,,2015,Africa
"100",Liechtenstein,LIE,Europe,2021-11-25,4432,36,55.857,61,0,0,115857.165,941.078,1460.165,1594.604,0,0,,,,,,,,,,,,,,,,,,"",,,,,,,,,,,,,,,38254,237.012,,,,,,,7.77,,,,2.397,82.49,0.919,,,,,2015,Europe
"101",Lithuania,LTU,Europe,2021-11-25,462431,1964,1715.714,6627,24,26.714,171916.254,730.149,637.845,2463.695,8.922,9.931,,,,,,,,,,,,,,,,,,"",3644744,1861496,1772106,258734,19559,13091,135.5,69.2,65.88,9.62,4867,1840,0.068,,2689862,45.135,43.5,19.002,13.778,29524.265,0.7,342.989,3.67,21.3,38,,6.56,75.93,0.882,,,,,2015,Europe
"102",Luxembourg,LUX,Europe,2021-11-25,87773,421,301.857,864,2,0.286,138265.697,663.186,475.505,1361.029,3.151,0.45,,,,,,,,,,,,,,,,,,"",,,,,,,,,,,,,,,634814,231.447,39.7,14.312,9.842,94277.965,0.2,128.275,4.42,20.9,26,,4.51,82.25,0.916,,,,,2015,Europe
"103",Madagascar,MDG,Africa,2021-11-25,44072,0,57.143,967,0,0.429,1550.339,0,2.01,34.017,0,0.015,,,,,,,,,,,,,,,,,,"",,,,,,,,,,,,,,,28427333,43.951,19.6,2.929,1.686,1416.44,77.6,405.994,3.94,,,50.54,0.2,67.04,0.528,,,,,2015,Africa
"104",Malawi,MWI,Africa,2021-11-25,61872,5,2,2304,0,0.143,3149.074,0.254,0.102,117.266,0,0.007,,,,,,,,,,,,,,,,,,"",,,,,,,,,,,,,,,19647681,197.519,18.1,2.979,1.783,1095.042,71.4,227.349,3.94,4.4,24.7,8.704,1.3,64.26,0.483,,,,,2015,Africa
"105",Malaysia,MYS,Asia,2021-11-25,2608979,6144,5635.143,30195,48,43.286,79599.813,187.453,171.928,921.248,1.464,1.321,,516,15.743,4423,134.945,,,,,,,,,,,,,"",52263807,25654664,25023796,1773910,138843,100348,159.46,78.27,76.35,5.41,3062,4799,0.015,,32776195,96.254,29.9,6.293,3.407,26808.164,0.1,260.942,16.74,1,42.4,,1.9,76.16,0.81,,,,,2015,Asia
"106",Maldives,MDV,Asia,2021-11-25,91122,76,111.714,248,0,0,167620.765,139.804,205.501,456.201,0,0,,,,,,,,,,,,,,,,,,"",,,,,,,,,,,,,,,543620,1454.433,30.6,4.12,2.875,15183.616,,164.905,9.19,2.1,55,95.803,,78.92,0.74,,,,,2015,Asia
"107",Mali,MLI,Africa,2021-11-25,17144,48,49.714,601,0,1.714,822.029,2.302,2.384,28.817,0,0.082,,,,,,,,,,,,,,,,,,"",,,,,,,,,,,,,,,20855724,15.196,16.4,2.519,1.486,2014.306,,268.024,2.42,1.6,23,52.232,0.1,59.31,0.434,,,,,2015,Africa
"108",Malta,MLT,Europe,2021-11-25,39011,83,80.286,466,2,0.571,75588.064,160.822,155.562,902.926,3.875,1.107,,,,,,,,,,,,,,,,,,"",942729,435265,431784,107776,2997,3083,182.66,84.34,83.66,20.88,5974,159,0.031,43.52,516100,1454.037,42.4,19.426,11.324,36513.323,0.2,168.711,8.83,20.9,30.2,,4.485,82.53,0.895,,,,,2015,Europe
"109",Marshall Islands,MHL,Oceania,2021-11-25,4,0,0,,,0,67.094,0,0,,,0,,,,,,,,,,,,,,,,,,"",,,,,,,,,,,,,,,59618,295.15,,,,3819.202,,557.793,30.53,,,82.502,2.7,73.7,0.704,,,,,2015,Oceania
"110",Mauritania,MRT,Africa,2021-11-25,38950,69,72.857,825,3,1.857,8156.88,14.45,15.258,172.771,0.628,0.389,,,,,,,,,,,,,,,,,,"",,,,,,,,,,,,,,,4775110,4.289,20.3,3.138,1.792,3597.633,6,232.347,2.42,,,15.95,,64.92,0.546,,,,,2015,Africa
"111",Mauritius,MUS,Africa,2021-11-25,18979,0,0,240,0,0,14903.866,0,0,188.468,0,0,,,,,,,,,,,,,,,,,,"",,,,,,,,,,,,,,,1273428,622.962,37.4,10.945,5.884,20292.745,0.5,224.644,22.02,3.2,40.7,,3.4,74.99,0.804,,,,,2015,Africa
"112",Mexico,MEX,North America,2021-11-25,3876391,8415,3056.714,293449,599,217.143,29758.367,64.6,23.466,2252.756,4.598,1.667,,,,,,,,,,,,,,,,,,"",131601135,76164064,64618673,,221510,193746,101.03,58.47,49.61,,1487,83854,0.064,35.19,130262220,66.444,29.3,6.857,4.321,17336.469,2.5,152.783,13.06,6.9,21.4,87.847,1.38,75.05,0.779,,,,,2015,North America
"113",Micronesia (country),FSM,Oceania,2021-11-25,1,0,0,,,0,8.602,0,0,,,0,,,,,,,,,,,,,,,,,,"",,,,,,,,,,,,,,,116255,150.777,23,4.81,2.392,3299.464,16,454.343,12.02,,,,,67.88,0.62,,,,,2015,Oceania
"114",Moldova,MDA,Europe,2021-11-25,361116,855,666.857,8985,35,39.429,89739.999,212.474,165.719,2232.839,8.698,9.798,,,,,,,,,,,,,,,,,,"",1607196,,926795,,4332,3322,39.94,,23.03,,826,,,,4024025,123.655,37.6,10.864,6.955,5189.972,0.2,408.502,5.72,5.9,44.6,86.979,5.8,71.9,0.75,,,,,2015,Europe
"115",Monaco,MCO,Europe,2021-11-25,3669,57,19,36,0,0,92839.069,1442.308,480.769,910.931,0,0,,,,,,,,,,,,,,,,,,"",,,,,,,,,,,,,,,39520,19347.5,,,,,,,5.46,,,,13.8,86.75,,,,,,2015,Europe
"116",Mongolia,MNG,Asia,2021-11-25,380130,586,541.143,1981,5,8,114177.772,176.014,162.54,595.023,1.502,2.403,,,,,,,,,,,,,,,,,,"",4408998,2259619,2149379,,798,567,132.43,67.87,64.56,,170,168,0.005,,3329282,1.98,28.6,4.031,2.421,11840.846,0.5,460.043,4.82,5.5,46.5,71.18,7,69.87,0.737,,,,,2015,Asia
"117",Montenegro,MNE,Europe,2021-11-25,156004,310,323,2275,7,6.286,248393.841,493.59,514.289,3622.317,11.146,10.008,,,,,,,,,,,,,,,,,,"",524233,271675,252558,,544,808,83.47,43.26,40.21,,1287,510,0.081,,628051,46.28,39.1,14.762,9.395,16409.288,1,387.305,10.08,44,47.9,,3.861,76.88,0.829,,,,,2015,Europe
"118",Morocco,MAR,Africa,2021-11-25,949378,115,106.429,14770,0,2.143,25421.969,3.079,2.85,395.504,0,0.057,,,,,,,,,,,,,,,,,,"",,,,,,,,,,,,,,,37344787,80.08,29.6,6.769,4.209,7485.013,1,419.146,7.14,0.8,47.1,,1.1,76.68,0.686,,,,,2015,Africa
"119",Mozambique,MOZ,Africa,2021-11-25,151512,9,5.714,1940,0,0.571,4710.748,0.28,0.178,60.318,0,0.018,,,,,,,,,,,,,,,,,,"",,,,,,,,,,,,,,,32163045,37.728,17.7,3.158,1.87,1136.103,62.9,329.942,3.3,5.1,29.1,12.227,0.7,60.85,0.456,,,,,2015,Africa
"120",Myanmar,MMR,Asia,2021-11-25,520213,482,581,19058,9,9.857,9491.896,8.795,10.601,347.736,0.164,0.18,,,,,,,,,,,,,,,,,,"",,,,,,,,,,,,,,64.81,54806014,81.721,29.1,5.732,3.12,5591.597,6.4,202.104,4.61,6.3,35.2,79.287,0.9,67.13,0.583,,,,,2015,Asia
"121",Namibia,NAM,Africa,2021-11-25,129133,7,8.429,3572,1,0.714,49909.482,2.705,3.258,1380.566,0.386,0.276,,,,,,,,,,,,,,,,,,"",,,,,,,,,,,,,,,2587344,3.078,22,3.552,2.085,9541.808,13.4,243.811,3.94,9.7,34.2,44.6,,63.71,0.646,,,,,2015,Africa
"122",Nepal,NPL,Asia,2021-11-25,820285,281,282.571,11516,3,3.857,27642.366,9.469,9.522,388.072,0.101,0.13,,,,,,,,,,,,,,,,,,"",,,,,,,,,,,,,,,29674920,204.43,25,5.809,3.212,2442.804,15,260.797,7.26,9.5,37.8,47.782,0.3,70.78,0.602,,,,,2015,Asia
"123",Netherlands,NLD,Europe,2021-11-25,2575172,22239,22245.143,19607,61,42.857,149953.876,1294.991,1295.349,1141.728,3.552,2.496,,,,,,,,,,,,,,,,,,"",,,,,,,,,,,,,,,17173094,508.544,43.2,18.779,11.881,48472.545,,109.361,5.29,24.4,27.3,,3.32,82.28,0.944,,,,,2015,Europe
"124",New Zealand,NZL,Oceania,2021-11-25,10967,177,187.714,42,1,0.571,2140.905,34.553,36.644,8.199,0.195,0.112,,,,,,,,,,,,,,,,,,"",7423710,3866728,3556982,,,17974,144.92,75.48,69.44,,3509,5780,0.113,,5122600,18.206,37.9,15.322,9.72,36085.843,,128.797,8.08,14.8,17.2,,2.61,82.29,0.931,,,,,2015,Oceania
"125",Nicaragua,NIC,North America,2021-11-25,17152,0,18.429,212,0,0.143,2559.091,0,2.75,31.631,0,0.021,,,,,,,,,,,,,,,,,,"",,,,,,,,,,,,,,,6702379,51.667,27.3,5.445,3.519,5321.444,3.2,137.016,11.47,,,,0.9,74.48,0.66,,,,,2015,North America
"126",Niger,NER,Africa,2021-11-25,6921,19,21.143,251,3,2,275.399,0.756,0.841,9.988,0.119,0.08,,,,,,,,,,,,,,,,,,"",,,,,,,,,,,,,,,25130810,16.955,15.1,2.553,1.378,926,44.5,238.339,2.42,0.1,15.4,8.978,0.3,62.42,0.394,,,,,2015,Africa
"127",Nigeria,NGA,Africa,2021-11-25,213883,206,59.857,2975,1,0.286,1011.742,0.974,0.283,14.073,0.005,0.001,,,,,,,,,,,,,,,,,,"",,,,,,,,,,,,,,,211400704,209.588,18.1,2.751,1.447,5338.454,,181.013,2.42,0.6,10.8,41.949,,54.69,0.539,,,,,2015,Africa
"128",North Macedonia,MKD,Europe,2021-11-25,213779,473,405.857,7492,18,14.571,102647.046,227.113,194.874,3597.321,8.643,6.997,,,,,,,,,,,,,,,,,,"",,,,,,,,,,,,,,,2082661,82.6,39.1,13.26,8.16,13111.214,5,322.688,10.08,,,,4.28,75.8,0.774,,,,,2015,Europe
"129",Norway,NOR,Europe,2021-11-25,254367,2970,2375.429,1050,1,7.714,46539.383,543.396,434.612,192.11,0.183,1.411,,,,,,,,,,,,,,,,,,"",8563552,4236469,3817702,509381,58746,28058,156.68,77.51,69.85,9.32,5134,1120,0.02,,5465629,14.462,39.7,16.821,10.813,64800.057,0.2,114.316,5.31,19.6,20.7,,3.6,82.4,0.957,,,,,2015,Europe
"130",Oman,OMN,Asia,2021-11-25,304519,5,7.571,4113,0,0,58299.269,0.957,1.45,787.422,0,0,,,,,,,,,,,,,,,,,,"",,,,,,,,,,,,,,,5223376,14.98,30.7,2.355,1.53,37960.709,,266.342,12.61,0.5,15.6,97.4,1.6,77.86,0.813,,,,,2015,Asia
"131",Pakistan,PAK,Asia,2021-11-25,1283475,252,319.286,28697,7,7,5699.269,1.119,1.418,127.429,0.031,0.031,,,,,,,,,,,,,,,,,,"",,,,,,,,,,,,,,,225199929,255.573,23.5,4.495,2.78,5034.708,4,423.031,8.35,2.8,36.7,59.607,0.6,67.27,0.557,,,,,2015,Asia
"132",Palau,PLW,Oceania,2021-11-25,8,0,0,,,0,440.189,0,0,,,0,,,,,,,,,,,,,,,,,,"",,,,,,,,,,,,,,,18174,47.237,,,,13240.405,,,15.89,7.7,22.7,,4.8,73.7,0.826,,,,,2015,Oceania
"133",Palestine,PSE,Asia,2021-11-25,459213,257,212,4788,5,3,87925.417,49.208,40.592,916.757,0.957,0.574,,,,,,,,,,,,,,,,,,"",,,,,,,,,,,,,,,5222756,778.202,20.4,3.043,1.726,4449.898,1,265.91,10.59,,,,,74.05,0.708,,,,,2015,Asia
"134",Panama,PAN,North America,2021-11-25,476813,202,206.286,7360,2,1.429,108822.086,46.102,47.08,1679.758,0.456,0.326,,,,,,,,,,,,,,,,,,"",5590755,3002844,2420957,166954,11379,7533,127.6,68.53,55.25,3.81,1719,1242,0.028,,4381583,55.133,29.7,7.918,5.03,22267.037,2.2,128.346,8.33,2.4,9.9,,2.3,78.51,0.815,,,,,2015,North America
"135",Papua New Guinea,PNG,Oceania,2021-11-25,34846,139,215.571,542,0,15.143,3821.25,15.243,23.64,59.436,0,1.661,,,,,,,,,,,,,,,,,,"",,,,,,,,,,,,,,,9119005,18.22,22.6,3.808,2.142,3823.194,,561.494,17.65,23.5,48.8,,,64.5,0.555,,,,,2015,Oceania
"136",Paraguay,PRY,South America,2021-11-25,462533,80,55.286,16366,1,2.429,64065.928,11.081,7.658,2266.872,0.139,0.336,,,,,,,,,,,,,,,,,,"",,,,,,,,,,,,,,,7219641,17.144,26.5,6.378,3.833,8827.01,1.7,199.128,8.27,5,21.6,79.602,1.3,74.25,0.728,,,,,2015,South America
"137",Peru,PER,South America,2021-11-25,2229741,3085,1446.286,200987,56,31.429,66839.931,92.478,43.355,6024.896,1.679,0.942,,,,,,,,,,,,,,,,,,"",,,,,,,,,,,,,,,33359415,25.129,29.1,7.151,4.455,12236.706,3.5,85.755,5.95,4.8,,,1.6,76.74,0.777,,,,,2015,South America
"138",Philippines,PHL,Asia,2021-11-25,2829618,958,1123.571,47875,193,207.571,25481.285,8.627,10.118,431.124,1.738,1.869,,,,,,,,,,,,,,,,,,"",,,,,,,,,,,,,,,111046910,351.873,25.2,4.803,2.661,7599.188,,370.437,7.07,7.8,40.8,78.463,1,71.23,0.718,,,,,2015,Asia
"139",Poland,POL,Europe,2021-11-25,3434272,28143,22069.286,82186,498,313.143,90860.968,744.583,583.89,2174.405,13.176,8.285,,,,,,,,,,,,,,,,,,"",41183099,20735438,20343006,2473782,,121278,108.96,54.86,53.82,6.54,3209,24870,0.066,,37797000,124.027,41.8,16.763,10.202,27216.445,,227.331,5.91,23.3,33.1,,6.62,78.73,0.88,,,,,2015,Europe
"140",Portugal,PRT,Europe,2021-11-25,1133241,3150,2594.429,18385,15,12.857,111452.555,309.798,255.158,1808.137,1.475,1.264,,,,,,,,,,,,,,,,,,"",,,,9e+05,,,,,,8.85,,,,,10167923,112.371,46.2,21.502,14.924,27936.896,0.5,127.842,9.85,16.3,30,,3.39,82.05,0.864,,,,,2015,Europe
"141",Qatar,QAT,Asia,2021-11-25,242673,155,143,611,0,0,82808.74,52.892,48.797,208.495,0,0,,,,,,,,,,,,,,,,,,"",4954143,,,,,7574,169.05,,,,2585,,,,2930524,227.322,31.9,1.307,0.617,116935.6,,176.69,16.52,0.8,26.9,,1.2,80.23,0.848,,,,,2015,Asia
"142",Romania,ROU,Europe,2021-11-25,1771887,2104,2386.857,55829,212,212.286,92634.26,109.997,124.785,2918.74,11.083,11.098,,,,,,,,,,,,,,,,,,"",14650539,,7314379,,65071,70061,76.59,,38.24,,3663,,,,19127772,85.129,43,17.85,11.69,23313.199,5.7,370.946,9.74,22.9,37.1,,6.892,76.05,0.828,,,,,2015,Europe
"143",Russia,RUS,Europe,2021-11-25,9303751,32866,34347.571,263934,1201,1212.286,63762.745,225.245,235.399,1808.857,8.231,8.308,,,,,,,,,,,,,,,,,,"",123052164,65248010,54934982,3841079,1006765,814196,84.33,44.72,37.65,2.63,5580,336633,0.231,,145912022,8.823,39.6,14.178,9.393,24765.954,0.1,431.297,6.18,23.4,58.3,,8.05,72.58,0.824,,,,,2015,Europe
"144",Rwanda,RWA,Africa,2021-11-25,100303,26,16.143,1341,0,0.286,7554.918,1.958,1.216,101.005,0,0.022,,,,,,,,,,,,,,,,,,"",,,,,,,,,,,,,,,13276517,494.869,20.3,2.974,1.642,1854.211,56,191.375,4.28,4.7,21,4.617,,69.02,0.543,,,,,2015,Africa
"145",Saint Kitts and Nevis,KNA,North America,2021-11-25,2774,0,1.429,28,0,0,51805.924,0,26.679,522.915,0,0,,,,,,,,,,,,,,,,,,"",,,,,,,,,,,,,,,53546,212.865,,,,24654.385,,,12.84,,,,2.3,76.23,0.779,,,,,2015,North America
"146",Saint Lucia,LCA,North America,2021-11-25,12927,0,7.857,279,0,1,70102.657,0,42.609,1513.007,0,5.423,,,,,,,,,,,,,,,,,,"",,,,,,,,,,,,,,,184401,293.187,34.9,9.721,6.405,12951.839,,204.62,11.62,,,87.202,1.3,76.2,0.759,,,,,2015,North America
"147",Saint Vincent and the Grenadines,VCT,North America,2021-11-25,5469,23,15.714,74,0,0.143,49151.156,206.706,141.228,665.055,0,1.284,,,,,,,,,,,,,,,,,,"",,,,,,,,,,,,,,,111269,281.787,31.8,7.724,4.832,10727.146,,252.675,11.62,,,,2.6,72.53,0.738,,,,,2015,North America
"148",Samoa,WSM,Oceania,2021-11-25,3,0,0,,,0,14.989,0,0,,,0,,,,,,,,,,,,,,,,,,"",,,,,,,,,,,,,,,200144,69.413,22,5.606,3.564,6021.557,,348.977,9.21,16.7,38.1,,,73.32,0.715,,,,,2015,Oceania
"149",San Marino,SMR,Europe,2021-11-25,5908,36,24.857,93,0,0.143,173713.614,1058.512,730.877,2734.49,0,4.2,,,,,,,,,,,,,,,,,,"",,,,,,,,,,,,,,,34010,556.667,,,,56861.47,,,5.64,,,,3.8,84.97,,,,,,2015,Europe
"150",Sao Tome and Principe,STP,Africa,2021-11-25,3731,0,0,56,0,0,16703.677,0,0,250.712,0,0,,,,,,,,,,,,,,,,,,"",,,,,,,,,,,,,,,223364,212.841,18.7,2.886,2.162,3052.714,32.3,270.113,2.42,,,41.34,2.9,70.39,0.625,,,,,2015,Africa
"151",Saudi Arabia,SAU,Asia,2021-11-25,549618,28,34.429,8829,1,1.143,15551.993,0.792,0.974,249.825,0.028,0.032,,,,,,,,,,,,,,,,,,"",47244948,24562266,22340456,,44821,40784,133.68,69.5,63.21,,1154,12044,0.034,,35340680,15.322,31.9,3.295,1.845,49045.411,,259.538,17.72,1.8,25.4,,2.7,75.13,0.854,,,,,2015,Asia
"152",Senegal,SEN,Africa,2021-11-25,73975,2,1.857,1885,0,0.286,4301.795,0.116,0.108,109.617,0,0.017,,,,,,,,,,,,,,,,,,"",,,,,,,,,,,,,,,17196308,82.328,18.7,3.008,1.796,2470.58,38,241.219,2.42,0.4,16.6,20.859,,67.94,0.512,,,,,2015,Africa
"153",Serbia,SRB,Europe,2021-11-25,1244169,2677,2703.857,11433,48,53,181060.975,389.577,393.486,1663.817,6.985,7.713,,210,30.399,4943,715.524,,,,,,,,,,,,,"",,,,,,,,,,,,,,,6871547,80.291,41.2,17.366,,14048.881,,439.415,10.08,37.7,40.2,97.719,5.609,76,0.806,,,,,2015,Europe
"154",Seychelles,SYC,Africa,2021-11-25,23197,0,52,125,0,0,234526.337,0,525.73,1263.775,0,0,,,,,,,,,,,,,,,,,,"",,,,,,,,,,,,,,,98910,208.354,36.2,8.606,5.586,26382.287,1.1,242.648,10.55,7.1,35.7,,3.6,73.4,0.796,,,,,2015,Africa
"155",Sierra Leone,SLE,Africa,2021-11-25,6400,0,0,121,0,0,786.111,0,0,14.862,0,0,,,,,,,,,,,,,,,,,,"",,,,,,,,,,,,,,,8141343,104.7,19.1,2.538,1.285,1390.3,52.2,325.721,2.42,8.8,41.3,19.275,,54.7,0.452,,,,,2015,Africa
"156",Singapore,SGP,Asia,2021-11-25,258785,1275,1995.714,681,3,8.857,47452.142,233.791,365.944,124.872,0.55,1.624,,,,,,,,,,,,,,,,,,"",,,,,,,,,,,,,,,5453600,7915.731,42.4,12.922,7.049,85535.383,,92.243,10.99,5.2,28.3,,2.4,83.62,0.938,,,,,2015,Asia
"157",Slovakia,SVK,Europe,2021-11-25,1119111,13141,11159.286,14107,51,54.571,204938.135,2406.457,2043.553,2583.356,9.339,9.993,,,,,,,,,,,,,,,,,,"",4959745,2618462,2341283,,6055,8053,90.83,47.95,42.87,,1475,6707,0.123,,5460726,113.128,41.2,15.07,9.167,30155.152,0.7,287.959,7.29,23.1,37.7,,5.82,77.54,0.86,,,,,2015,Europe
"158",Slovenia,SVN,Europe,2021-11-25,411301,2678,2803.429,5125,11,17.714,197862.341,1288.291,1348.63,2465.456,5.292,8.522,,,,,,,,,,,,,,,,,,"",2642406,1227059,1143838,271509,14653,9730,127.12,59.03,55.03,13.06,4681,1294,0.062,,2078723,102.619,44.5,19.062,12.93,31400.84,,153.493,7.25,20.1,25,,4.5,81.32,0.917,,,,,2015,Europe
"159",Solomon Islands,SLB,Oceania,2021-11-25,20,0,0,,,0,28.409,0,0,,,0,,,,,,,,,,,,,,,,,,"",,,,,,,,,,,,,,,703995,21.841,20.8,3.507,2.043,2205.923,25.1,459.78,18.68,,,35.89,1.4,73,0.567,,,,,2015,Oceania
"160",Somalia,SOM,Africa,2021-11-25,23016,47,25.571,1327,3,2,1406.889,2.873,1.563,81.115,0.183,0.122,,,,,,,,,,,,,,,,,,"",,,,,,,,,,,,,,,16359500,23.5,16.8,2.731,1.496,,,365.769,6.05,,,9.831,0.9,57.4,,,,,,2015,Africa
"161",South Africa,ZAF,Africa,2021-11-25,2952500,2465,1000,89771,114,36.571,49173.915,41.055,16.655,1495.137,1.899,0.609,,,,,,,,,,,,,,,,,,"",,,,,,,,,,,,,,,60041996,46.754,27.3,5.344,3.053,12294.876,18.9,200.38,5.52,8.1,33.2,43.993,2.32,64.13,0.709,,,,,2015,Africa
"162",South Korea,KOR,Asia,2021-11-25,432901,3899,3400.286,3440,39,32.143,8437.763,75.996,66.276,67.05,0.76,0.627,,,,,,,,,,,,,,,,,,"",84150239,42419011,40764548,2464798,307277,210735,164.02,82.68,79.46,4.8,4107,35916,0.07,,51305184,527.967,43.4,13.914,8.622,35938.374,0.2,85.998,6.8,6.2,40.9,,12.27,83.03,0.916,,,,,2015,Asia
"163",South Sudan,SSD,Africa,2021-11-25,12717,16,15.429,133,0,0,1117.352,1.406,1.356,11.686,0,0,,,,,,,,,,,,,,,,,,"",,,,,,,,,,,,,,,11381377,,19.2,3.441,2.032,1569.888,,280.775,10.43,,,,,57.85,0.433,,,,,2015,Africa
"164",Spain,ESP,Europe,2021-11-25,5121100,9258,6724.714,87931,27,18.143,109553.468,198.052,143.859,1881.07,0.578,0.388,,,,,,,,,,,,,,,,,,"",,,,,,,,,,,,,,,46745211,93.105,45.5,19.436,13.799,34272.36,1,99.403,7.17,27.4,31.4,,2.97,83.56,0.904,,,,,2015,Europe
"165",Sri Lanka,LKA,Asia,2021-11-25,560345,740,840.857,14232,27,22.857,26065.824,34.423,39.115,662.036,1.256,1.063,,,,,,,,,,,,,,,,,,"",29641413,15918179,13723234,,3301,8333,137.88,74.05,63.84,,388,3401,0.016,,21497306,341.955,34.1,10.069,5.331,11669.077,0.7,197.093,10.68,0.3,27,,3.6,76.98,0.782,,,,,2015,Asia
"166",Sudan,SDN,Africa,2021-11-25,42056,97,71.143,3114,0,2.143,936.464,2.16,1.584,69.34,0,0.048,,,,,,,,,,,,,,,,,,"",,,,,,,,,,,,,,,44909351,23.258,19.7,3.548,2.034,4466.507,,431.388,15.67,,,23.437,0.8,65.31,0.51,,,,,2015,Africa
"167",Suriname,SUR,South America,2021-11-25,50656,27,42.857,1158,0,2.143,85596.775,45.624,72.419,1956.749,0,3.621,,,,,,,,,,,,,,,,,,"",473832,256711,217121,,,794,80.07,43.38,36.69,,1342,249,0.042,,591798,3.612,29.6,6.933,4.229,13767.119,,258.314,12.54,7.4,42.9,67.779,3.1,71.68,0.738,,,,,2015,South America
"168",Sweden,SWE,Europe,2021-11-25,1196688,2052,1297.286,15142,0,4.714,117782.409,201.965,127.684,1490.331,0,0.464,,,,,,,,,,,,,,,,,,"",15564333,7305433,7015719,,73506,50296,153.19,71.9,69.05,,4950,2757,0.027,,10160159,24.718,41,19.985,13.433,46949.283,0.5,133.982,4.79,18.8,18.9,,2.22,82.8,0.945,,,,,2015,Europe
"169",Switzerland,CHE,Europe,2021-11-25,978801,8048,6250.571,11455,20,13,112305.854,923.413,717.179,1314.326,2.295,1.492,,190,21.8,1105,126.786,,,,,,,,,,,,,"",,,,,,,,,,,,,,,8715494,214.243,43.1,18.436,12.644,57410.166,,99.739,5.59,22.6,28.9,,4.53,83.78,0.955,,,,,2015,Europe
"170",Syria,SYR,Asia,2021-11-25,47664,106,118,2724,5,5,2608.053,5.8,6.457,149.05,0.274,0.274,,,,,,,,,,,,,,,,,,"",,,,,,,,,,,,,,,18275704,,21.7,,2.577,,,376.264,,,,70.598,1.5,72.7,0.567,,,,,2015,Asia
"171",Taiwan,TWN,Asia,2021-11-25,16554,10,6.857,848,0,0,693.942,0.419,0.287,35.548,0,0,,,,,,,,,,,,,,,,,,"",30254219,18136444,12117775,,321800,224985,126.83,76.03,50.8,,9431,22096,0.093,,23855008,,42.2,,8.353,,,103.957,,,,,,80.46,,,,,,2015,Asia
"172",Tajikistan,TJK,Asia,2021-11-25,17493,0,0.571,125,0,0,1794.223,0,0.059,12.821,0,0,,,,,,,,,,,,,,,,,,"",,,,,,,,,,,,,,,9749625,64.281,23.3,3.466,2.155,2896.913,4.8,427.698,7.11,,,72.704,4.8,71.1,0.668,,,,,2015,Asia
"173",Tanzania,TZA,Africa,2021-11-25,26261,0,4.857,730,0,0.429,427.019,0,0.079,11.87,0,0.007,,,,,,,,,,,,,,,,,,"",,,,,,,,,,,,,,,61498438,64.699,17.7,3.108,1.874,2683.304,49.1,217.288,5.75,3.3,26.7,47.953,0.7,65.46,0.529,,,,,2015,Africa
"174",Thailand,THA,Asia,2021-11-25,2094886,12894,7251.571,20645,101,55.857,29947.973,184.329,103.667,295.136,1.444,0.799,,,,,,,,,,,,,,,,,,"",90468955,47233526,40056072,3179357,574772,511161,129.33,67.52,57.26,4.55,7307,175482,0.251,,69950844,135.132,40.1,11.373,6.89,16277.671,0.1,109.861,7.04,1.9,38.8,90.67,2.1,77.15,0.777,,,,,2015,Asia
"175",Timor,TLS,Asia,2021-11-25,19820,0,0.857,122,0,0,14748.395,0,0.638,90.782,0,0,,,,,,,,,,,,,,,,,,"",,,,,,,,,,,,,,,1343875,87.176,18,3.556,1.897,6570.102,30.3,335.346,6.86,6.3,78.1,28.178,5.9,69.5,0.606,,,,,2015,Asia
"176",Togo,TGO,Africa,2021-11-25,26232,13,6.714,243,0,0,3094.038,1.533,0.792,28.662,0,0,,,,,,,,,,,,,,,,,,"",,,,,,,,,,,,,,,8478242,143.366,19.4,2.839,1.525,1429.813,49.2,280.033,6.15,0.9,14.2,10.475,0.7,61.04,0.515,,,,,2015,Africa
"177",Tonga,TON,Oceania,2021-11-25,1,0,0,,,0,9.367,0,0,,,0,,,,,,,,,,,,,,,,,,"",,,,,,,,,,,,,,,106759,150.028,22.3,5.82,4.032,5425.621,,227.49,15.42,11.8,44.4,,2.6,70.91,0.725,,,,,2015,Oceania
"178",Trinidad and Tobago,TTO,North America,2021-11-25,68288,624,555.143,2040,31,18.857,48659.873,444.643,395.577,1453.64,22.09,13.437,,,,,,,,,,,,,,,,,,"",1280273,640787,639486,,1943,1852,91.23,45.66,45.57,,1320,776,0.055,,1403374,266.886,36.2,10.014,5.819,28763.071,,228.467,10.97,,,89.443,3,73.51,0.796,,,,,2015,North America
"179",Tunisia,TUN,Africa,2021-11-25,716861,159,124.714,25357,1,3.857,60059.917,13.321,10.449,2124.456,0.084,0.323,,,,,,,,,,,,,,,,,,"",,,,,,,,,,,,,,,11935764,74.228,32.7,8.001,5.075,10849.297,2,318.991,8.52,1.1,65.8,78.687,2.3,76.7,0.74,,,,,2015,Africa
"180",Turkey,TUR,Asia,2021-11-25,8678609,24467,24774.143,75840,222,201.714,102049.974,287.702,291.314,891.787,2.61,2.372,,,,,,,,,,,,,,,,,,"",119844933,56144078,50240356,13460499,118858,116448,140.92,66.02,59.08,15.83,1369,24445,0.029,,85042736,104.914,31.6,8.153,5.061,25129.341,0.2,171.285,12.13,14.1,41.1,,2.81,77.69,0.82,,,,,2015,Asia
"181",Uganda,UGA,Africa,2021-11-25,127337,32,37.714,3250,0,0.429,2702.196,0.679,0.8,68.968,0,0.009,,,,,,,,,,,,,,,,,,"",,,,,,,,,,,,,,,47123533,213.759,16.4,2.168,1.308,1697.707,41.6,213.333,2.5,3.4,16.7,21.222,0.5,63.37,0.544,,,,,2015,Africa
"182",Ukraine,UKR,Europe,2021-11-25,3548842,17873,15462.857,88664,665,610.143,81644.846,411.187,355.739,2039.809,15.299,14.037,,,,,,,,,,,,,,,,,,"",23775008,13164649,10631039,,273875,238434,54.7,30.29,24.46,,5485,72494,0.167,,43466822,77.39,41.4,16.462,11.133,7894.393,0.1,539.849,7.11,13.5,47.4,,8.8,72.06,0.779,,,,,2015,Europe
"183",United Arab Emirates,ARE,Asia,2021-11-25,741720,77,72.286,2145,0,0.143,74238.198,7.707,7.235,214.691,0,0.014,,,,,,,,,,,,,,,,,,"",,,,,,,,,,,,,,,9991083,112.442,34,1.144,0.526,67293.483,,317.84,17.26,1.2,37.4,,1.2,77.97,0.89,,,,,2015,Asia
"184",United Kingdom,GBR,Europe,2021-11-25,10076116,47287,43349.429,144876,148,125.286,147728.227,693.285,635.556,2124.06,2.17,1.837,,,,,,,,,,,,,,,,,,"",113910449,50875712,46255081,16779656,442483,403931,167.01,74.59,67.82,24.6,5922,23966,0.035,,68207114,272.898,40.8,18.517,12.527,39753.244,0.2,122.137,4.28,20,24.7,,2.54,81.32,0.932,,,,,2015,Europe
"185",United States,USA,North America,2021-11-25,48126574,34522,85036.429,775797,394,1014.571,144561.114,103.696,255.43,2330.315,1.183,3.048,,12343,37.076,47678,143.214,,,,,,,,,,,,,"",,,,,,,,,,,,,,,332915074,35.608,38.3,15.413,9.732,54225.446,1.2,151.089,10.79,19.1,24.6,,2.77,78.86,0.926,,,,,2015,North America
"186",Uruguay,URY,South America,2021-11-25,398676,240,194,6123,4,1.857,114392.715,68.864,55.665,1756.882,1.148,0.533,,,,,,,,,,,,,,,,,,"",6774143,2748797,2653693,1371653,8489,4496,194.37,78.87,76.14,39.36,1290,694,0.02,,3485152,19.751,35.6,14.655,10.361,20551.409,0.1,160.708,6.93,14,19.9,,2.8,77.91,0.817,,,,,2015,South America
"187",Uzbekistan,UZB,Asia,2021-11-25,192175,219,227.286,1389,4,3.143,5662.905,6.453,6.698,40.93,0.118,0.093,,,,,,,,,,,,,,,,,,"",,,,,,,,,,,,,,,33935765,76.134,28.2,4.469,2.873,6253.104,,724.417,7.57,1.3,24.7,,4,71.72,0.72,,,,,2015,Asia
"188",Vanuatu,VUT,Oceania,2021-11-25,6,0,0,1,0,0,19.08,0,0,3.18,0,0,,,,,,,,,,,,,,,,,,"",,,,,,,,,,,,,,,314464,22.662,23.1,4.394,2.62,2921.909,13.2,546.3,12.02,2.8,34.5,25.209,,70.47,0.609,,,,,2015,Oceania
"189",Vatican,VAT,Europe,2021-11-25,27,0,0,,,0,33251.232,0,0,,,0,,,,,,,,,,,,,,,,,,"",,,,,,,,,,,,,,,812,,,,,,,,,,,,,75.12,,,,,,2015,Europe
"190",Venezuela,VEN,South America,2021-11-25,428453,1654,889.143,5115,18,9.429,14926.103,57.621,30.975,178.192,0.627,0.328,,,,,,,,,,,,,,,,,,"",,,,,,,,,,,,,,,28704947,36.253,29,6.614,3.915,16745.022,,204.85,6.47,,,,0.8,72.06,0.711,,,,,2015,South America
"191",Vietnam,VNM,Asia,2021-11-25,1168228,12450,14679.857,24407,164,133,11900.193,126.822,149.537,248.623,1.671,1.355,,,,,,,,,,,,,,,,,,"",,,,,,,,,,,,,,,98168829,308.127,32.6,7.15,4.718,6171.884,2,245.465,6,1,45.9,85.847,2.6,75.4,0.704,,,,,2015,Asia
"192",Yemen,YEM,Asia,2021-11-25,9977,5,3.857,1943,1,1.286,327.215,0.164,0.127,63.724,0.033,0.042,,,,,,,,,,,,,,,,,,"",,,,,,,,,,,,,,,30490639,53.508,20.3,2.922,1.583,1479.147,18.8,495.003,5.35,7.6,29.2,49.542,0.7,66.12,0.47,,,,,2015,Asia
"193",Zambia,ZMB,Africa,2021-11-25,210112,13,10.857,3667,0,0.143,11104.9,0.687,0.574,193.809,0,0.008,,,,,,,,,,,,,,,,,,"",,,,,,,,,,,,,,,18920657,22.995,17.7,2.48,1.542,3689.251,57.5,234.499,3.94,3.1,24.7,13.938,2,63.89,0.584,,,,,2015,Africa
"194",Zimbabwe,ZWE,Africa,2021-11-25,133774,27,25.857,4704,1,0.714,8863.801,1.789,1.713,311.685,0.066,0.047,,,,,,,,,,,,,,,,,,"",,,,,,,,,,,,,,,15092171,42.729,19.6,2.822,1.882,1899.775,21.4,307.846,1.82,1.6,30.7,36.791,1.7,61.49,0.571,,,,,2015,Africa
